{
    "generated-reports": {
        "pageNumber": 1,
        "pageSize": 10,
        "firstPage": "First page",
        "lastPage": "Last page",
        "totalPages": 3,
        "totalRecords": 27,
        "nextPage": "Next page",
        "previousPage": null,
        "data": [
            {
                "firstName": "rafa",
                "lastName": "zira",
                "email": "rziraldo@pdainternational.net",
                "reportTypeId": "5fa85f64-5717-4562-b3fc-2c963f66afa6",
                "shortId": "logKCXbs8U6la-mTq3hnqg",
                "urlReport": "http://cluna.com/logKCXbs8U6la-mTq3hnqg",
                "reportGeneratedId": "090a8896-ec76-4ef1-a56b-e993ab7867aa",
                "creationDate": "2022-09-05T15:05:34.68",
                "modificationDate": "2022-09-05T15:05:34.68",
                "userId": "2c5926c4-bda2-4ede-9bf8-8b9629b0dc8b",
                "baseId": "d92c7492-be33-4adb-b8a1-051248d315dd",
                "subBaseId": "13cd5f84-135b-47f4-929e-d538134f2d92",
                "reportId": "9f77baec-810d-43c4-a63a-d05fbe717020",
                "isPublic": false,
                "expirationDate": "2022-09-05T15:05:34.68",
                "individualId": "c99659de-4d4d-4d12-b848-ae9b012228b9",
                "areaId": "f07fedb6-39ba-682f-7740-1827f4ca4cf8",
                "groupId": "8b9dd67b-a164-dfdf-ca67-27bb9a1a0f67",
                "reportStyleId": null,
                "leaderIndividualId": "4bb5d09b-b431-4019-8ad4-fc46ffc0820d",
                "feedbackText": null
            },
            {
                "firstName": "rafa",
                "lastName": "zira",
                "email": "rziraldo@pdainternational.net",
                "reportTypeId": "5fa85f64-5717-4562-b3fc-2c963f66afa6",
                "shortId": "qyBLVDbTrEelpkatFrsMuQ",
                "urlReport": "http://cluna.com/report/qyBLVDbTrEelpkatFrsMuQ",
                "reportGeneratedId": "544b20ab-d336-47ac-a5a6-46ad16bb0cb9",
                "creationDate": "2022-09-02T19:43:27.85",
                "modificationDate": "2022-09-02T19:43:27.85",
                "userId": "2c5926c4-bda2-4ede-9bf8-8b9629b0dc8b",
                "baseId": "d92c7492-be33-4adb-b8a1-051248d315dd",
                "subBaseId": "13cd5f84-135b-47f4-929e-d538134f2d92",
                "reportId": "9f77baec-810d-43c4-a63a-d05fbe717020",
                "isPublic": false,
                "expirationDate": "2022-09-02T19:43:27.85",
                "individualId": "c99659de-4d4d-4d12-b848-ae9b012228b9",
                "areaId": "f07fedb6-39ba-682f-7740-1827f4ca4cf8",
                "groupId": "8b9dd67b-a164-dfdf-ca67-27bb9a1a0f67",
                "reportStyleId": null,
                "leaderIndividualId": "f30fcad9-92bd-4f4b-98a9-b1fa9ca45b39",
                "feedbackText": null
            },
            {
                "firstName": "Maximilianoxsx",
                "lastName": "Leveroni",
                "email": "maxi.leveronixssd@gmail.com",
                "reportTypeId": "5fa85f64-5717-4562-b3fc-2c963f66afa6",
                "shortId": "63IlswPhWkm1AiAmTNiTxw",
                "urlReport": "http://cluna.com/63IlswPhWkm1AiAmTNiTxw",
                "reportGeneratedId": "b32572eb-e103-495a-b502-20264cd893c7",
                "creationDate": "2022-09-02T19:33:10.003",
                "modificationDate": "2022-09-02T19:33:10.003",
                "userId": "2c5926c4-bda2-4ede-9bf8-8b9629b0dc8b",
                "baseId": "d92c7492-be33-4adb-b8a1-051248d315dd",
                "subBaseId": "13cd5f84-135b-47f4-929e-d538134f2d92",
                "reportId": "9f77baec-810d-43c4-a63a-d05fbe717020",
                "isPublic": false,
                "expirationDate": "2022-09-02T19:33:10.003",
                "individualId": "e5c23b18-d99a-4270-a934-aef400e7fee4",
                "areaId": "f07fedb6-39ba-682f-7740-1827f4ca4cf8",
                "groupId": "8b9dd67b-a164-dfdf-ca67-27bb9a1a0f67",
                "reportStyleId": null,
                "leaderIndividualId": "f30fcad9-92bd-4f4b-98a9-b1fa9ca45b39",
                "feedbackText": null
            },
            {
                "firstName": "Maximilianoxsx",
                "lastName": "Leveroni",
                "email": "maxi.leveronixssd@gmail.com",
                "reportTypeId": "5fa85f64-5717-4562-b3fc-2c963f66afa6",
                "shortId": "r5mqDCBXwU2TjT3O8yR-qA",
                "urlReport": "http://cluna.com/r5mqDCBXwU2TjT3O8yR-qA",
                "reportGeneratedId": "0caa99af-5720-4dc1-938d-3dcef3247ea8",
                "creationDate": "2022-09-02T17:11:07.073",
                "modificationDate": "2022-09-02T17:11:07.073",
                "userId": "2c5926c4-bda2-4ede-9bf8-8b9629b0dc8b",
                "baseId": "d92c7492-be33-4adb-b8a1-051248d315dd",
                "subBaseId": "13cd5f84-135b-47f4-929e-d538134f2d92",
                "reportId": "9f77baec-810d-43c4-a63a-d05fbe717020",
                "isPublic": false,
                "expirationDate": "2022-09-02T17:11:07.073",
                "individualId": "e5c23b18-d99a-4270-a934-aef400e7fee4",
                "areaId": "f07fedb6-39ba-682f-7740-1827f4ca4cf8",
                "groupId": "8b9dd67b-a164-dfdf-ca67-27bb9a1a0f67",
                "reportStyleId": null,
                "leaderIndividualId": "f30fcad9-92bd-4f4b-98a9-b1fa9ca45b39",
                "feedbackText": null
            },
            {
                "firstName": "Maximilianoxsx",
                "lastName": "Leveroni",
                "email": "maxi.leveronixssd@gmail.com",
                "reportTypeId": "5fa85f64-5717-4562-b3fc-2c963f66afa6",
                "shortId": "KY4tkIXdpkyMP__94OyJXw",
                "urlReport": "http://cluna.com/KY4tkIXdpkyMP__94OyJXw",
                "reportGeneratedId": "902d8e29-dd85-4ca6-8c3f-fffde0ec895f",
                "creationDate": "2022-09-02T17:08:27.233",
                "modificationDate": "2022-09-02T17:08:27.233",
                "userId": "2c5926c4-bda2-4ede-9bf8-8b9629b0dc8b",
                "baseId": "d92c7492-be33-4adb-b8a1-051248d315dd",
                "subBaseId": "13cd5f84-135b-47f4-929e-d538134f2d92",
                "reportId": "9f77baec-810d-43c4-a63a-d05fbe717020",
                "isPublic": false,
                "expirationDate": "2022-09-02T17:08:27.233",
                "individualId": "e5c23b18-d99a-4270-a934-aef400e7fee4",
                "areaId": "f07fedb6-39ba-682f-7740-1827f4ca4cf8",
                "groupId": "8b9dd67b-a164-dfdf-ca67-27bb9a1a0f67",
                "reportStyleId": null,
                "leaderIndividualId": "4bb5d09b-b431-4019-8ad4-fc46ffc0820d",
                "feedbackText": null
            },
            {
                "firstName": "Maximilianoxsx",
                "lastName": "Leveroni",
                "email": "maxi.leveronixssd@gmail.com",
                "reportTypeId": "5fa85f64-5717-4562-b3fc-2c963f66afa6",
                "shortId": "E2yoxEgIQk-PkxeB6QqnRw",
                "urlReport": "http://cluna.com/E2yoxEgIQk-PkxeB6QqnRw",
                "reportGeneratedId": "c4a86c13-0848-4f42-8f93-1781e90aa747",
                "creationDate": "2022-09-02T17:05:04.603",
                "modificationDate": "2022-09-02T17:05:04.603",
                "userId": "2c5926c4-bda2-4ede-9bf8-8b9629b0dc8b",
                "baseId": "d92c7492-be33-4adb-b8a1-051248d315dd",
                "subBaseId": "13cd5f84-135b-47f4-929e-d538134f2d92",
                "reportId": "9f77baec-810d-43c4-a63a-d05fbe717020",
                "isPublic": false,
                "expirationDate": "2022-09-02T17:05:04.603",
                "individualId": "e5c23b18-d99a-4270-a934-aef400e7fee4",
                "areaId": "f07fedb6-39ba-682f-7740-1827f4ca4cf8",
                "groupId": "8b9dd67b-a164-dfdf-ca67-27bb9a1a0f67",
                "reportStyleId": null,
                "leaderIndividualId": "e012534b-ea14-423e-9c3c-a7b39534024d",
                "feedbackText": null
            },
            {
                "firstName": "rafa",
                "lastName": "zira",
                "email": "rziraldo@pdainternational.net",
                "reportTypeId": "5fa85f64-5717-4562-b3fc-2c963f66afa6",
                "shortId": "7Z8Z5vZQJUKa-O2YoTMyRQ",
                "urlReport": "http://cluna.com/7Z8Z5vZQJUKa-O2YoTMyRQ",
                "reportGeneratedId": "e6199fed-50f6-4225-9af8-ed98a1333245",
                "creationDate": "2022-09-02T16:05:48.257",
                "modificationDate": "2022-09-02T16:05:48.257",
                "userId": "2c5926c4-bda2-4ede-9bf8-8b9629b0dc8b",
                "baseId": "d92c7492-be33-4adb-b8a1-051248d315dd",
                "subBaseId": "13cd5f84-135b-47f4-929e-d538134f2d92",
                "reportId": "9f77baec-810d-43c4-a63a-d05fbe717020",
                "isPublic": false,
                "expirationDate": "2022-09-02T16:05:48.257",
                "individualId": "c99659de-4d4d-4d12-b848-ae9b012228b9",
                "areaId": "f07fedb6-39ba-682f-7740-1827f4ca4cf8",
                "groupId": "8b9dd67b-a164-dfdf-ca67-27bb9a1a0f67",
                "reportStyleId": null,
                "leaderIndividualId": "f30fcad9-92bd-4f4b-98a9-b1fa9ca45b39",
                "feedbackText": null
            },
            {
                "firstName": "David",
                "lastName": "Meleán",
                "email": "dmelean@pdainternational.net",
                "reportTypeId": "5fa85f64-5717-4562-b3fc-2c963f66afa6",
                "shortId": "ZeBFo0ZYXk2QUrdZft3A4Q",
                "urlReport": "http://cluna.com/ZeBFo0ZYXk2QUrdZft3A4Q",
                "reportGeneratedId": "a345e065-5846-4d5e-9052-b7597eddc0e1",
                "creationDate": "2022-09-02T15:21:24.403",
                "modificationDate": "2022-09-02T15:21:24.403",
                "userId": "2c5926c4-bda2-4ede-9bf8-8b9629b0dc8b",
                "baseId": "d92c7492-be33-4adb-b8a1-051248d315dd",
                "subBaseId": "13cd5f84-135b-47f4-929e-d538134f2d92",
                "reportId": "9f77baec-810d-43c4-a63a-d05fbe717020",
                "isPublic": false,
                "expirationDate": "2022-09-02T15:21:24.403",
                "individualId": "a79c3c5c-eb07-41ee-916e-ab8c0004c4d8",
                "areaId": "f07fedb6-39ba-682f-7740-1827f4ca4cf8",
                "groupId": "8b9dd67b-a164-dfdf-ca67-27bb9a1a0f67",
                "reportStyleId": null,
                "leaderIndividualId": "f30fcad9-92bd-4f4b-98a9-b1fa9ca45b39",
                "feedbackText": null
            },
            {
                "firstName": "Maximilianoxsx",
                "lastName": "Leveroni",
                "email": "maxi.leveronixssd@gmail.com",
                "reportTypeId": "6fa85f64-1117-1262-b3fc-2c963f66afa6",
                "shortId": "P7mfuvfpxkmFsTNKu1PgZg",
                "urlReport": "http://cluna.com/P7mfuvfpxkmFsTNKu1PgZg",
                "reportGeneratedId": "ba9fb93f-e9f7-49c6-85b1-334abb53e066",
                "creationDate": "2022-09-01T18:09:54.463",
                "modificationDate": "2022-09-01T18:09:54.463",
                "userId": "2c5926c4-bda2-4ede-9bf8-8b9629b0dc8b",
                "baseId": "d92c7492-be33-4adb-b8a1-051248d315dd",
                "subBaseId": "13cd5f84-135b-47f4-929e-d538134f2d92",
                "reportId": "01e3cef3-8b17-4922-8695-6f768267dba2",
                "isPublic": false,
                "expirationDate": "2022-09-01T18:09:54.463",
                "individualId": "e5c23b18-d99a-4270-a934-aef400e7fee4",
                "areaId": null,
                "groupId": null,
                "reportStyleId": null,
                "leaderIndividualId": null,
                "feedbackText": "HrFeedback"
            },
            {
                "firstName": "Maximilianoxsx",
                "lastName": "Leveroni",
                "email": "maxi.leveronixssd@gmail.com",
                "reportTypeId": "5fa85f64-5717-4562-b3fc-2c963f66afa6",
                "shortId": "pGHJUwTrQEKBWHK_CfIgJw",
                "urlReport": "http://cluna.com/pGHJUwTrQEKBWHK_CfIgJw",
                "reportGeneratedId": "53c961a4-eb04-4240-8158-72bf09f22027",
                "creationDate": "2022-09-01T18:08:10.843",
                "modificationDate": "2022-09-01T18:08:10.843",
                "userId": "2c5926c4-bda2-4ede-9bf8-8b9629b0dc8b",
                "baseId": "d92c7492-be33-4adb-b8a1-051248d315dd",
                "subBaseId": "13cd5f84-135b-47f4-929e-d538134f2d92",
                "reportId": "9f77baec-810d-43c4-a63a-d05fbe717020",
                "isPublic": false,
                "expirationDate": "2022-09-01T18:08:10.843",
                "individualId": "e5c23b18-d99a-4270-a934-aef400e7fee4",
                "areaId": "f07fedb6-39ba-682f-7740-1827f4ca4cf8",
                "groupId": "8b9dd67b-a164-dfdf-ca67-27bb9a1a0f67",
                "reportStyleId": null,
                "leaderIndividualId": "4bb5d09b-b431-4019-8ad4-fc46ffc0820d",
                "feedbackText": null
            }
        ]
    }
}