{
    "individuals": {
        "pageNumber": 1,
        "pageSize": 10,
        "firstPage": "First page",
        "lastPage": "Last page",
        "totalPages": 5,
        "totalRecords": 42,
        "nextPage": "Next page",
        "previousPage": null,
        "data": [
            {
                "individualId": "645cde85-9003-4137-932c-1aef3a240f4b",
                "baseId": "d92c7492-be33-4adb-b8a1-051248d315dd",
                "subbaseId": "014bd6fd-bb2d-49e8-8e48-63ad4b560920",
                "firstName": "Dsad",
                "lastName": "Adsdasd",
                "email": "a@gg.com",
                "creationDate": "2022-01-13T14:19:51.277",
                "modificationDate": "2022-01-13T14:19:51.28",
                "date": "2022-01-13T14:41:39.807",
                "behaviouralProfileId": "3aecfd59-798f-471f-88bb-b3c1e7dada6b",
                "behaviouralProfileName": "Apegado a normas    ",
                "r": 32,
                "e": 47,
                "p": 21,
                "n": 100,
                "s": 11,
                "consistencyIndicator": 1,
                "consistencyText": "Consistente",
                "gender": 0,
                "genderText": "Femenino",
                "consistencyEnum": "Consistent"
            },
            {
                "individualId": "48e92f1d-e007-41b4-aeb3-69247b9912c8",
                "baseId": "d92c7492-be33-4adb-b8a1-051248d315dd",
                "subbaseId": "014bd6fd-bb2d-49e8-8e48-63ad4b560920",
                "firstName": "Juan Manuel",
                "lastName": "Guzman Oropeza",
                "email": "mail@gmail.com",
                "creationDate": "2016-10-31T18:18:50.483",
                "modificationDate": "2018-01-19T10:18:25.253",
                "date": "2016-11-01T20:26:32.03",
                "behaviouralProfileId": "7aa9f8ed-43fa-4e6d-98cf-cefafb916e98",
                "behaviouralProfileName": "Negociador          ",
                "r": 60,
                "e": 100,
                "p": 36,
                "n": 4,
                "s": 4,
                "consistencyIndicator": 0,
                "consistencyText": "Consistente",
                "gender": 1,
                "genderText": "Masculino",
                "consistencyEnum": "Consistent"
            },
            {
                "individualId": "29d09978-06e5-4ead-83f9-f775e766b490",
                "baseId": "d92c7492-be33-4adb-b8a1-051248d315dd",
                "subbaseId": "014bd6fd-bb2d-49e8-8e48-63ad4b560920",
                "firstName": "Wilson Eliecer",
                "lastName": "Fuquene Botina",
                "email": "fuquenew@gmail.com",
                "creationDate": "2016-10-24T16:12:54.09",
                "modificationDate": "2018-01-23T11:27:14.433",
                "date": "2016-10-24T23:50:04.507",
                "behaviouralProfileId": "eace0e12-7960-4265-9c09-e04909fb3a2c",
                "behaviouralProfileName": "Orientado al cambio ",
                "r": 42,
                "e": 74,
                "p": 0,
                "n": 84,
                "s": 37,
                "consistencyIndicator": 2,
                "consistencyText": "Consistente",
                "gender": 1,
                "genderText": "Masculino",
                "consistencyEnum": "Consistent"
            },
            {
                "individualId": "2bb8b842-8eed-484b-95c5-605df9b459b5",
                "baseId": "d92c7492-be33-4adb-b8a1-051248d315dd",
                "subbaseId": "014bd6fd-bb2d-49e8-8e48-63ad4b560920",
                "firstName": "Maximiliano",
                "lastName": "Leveroni",
                "email": "mleveroni3@pdainternational.net",
                "creationDate": "2016-06-27T19:26:53",
                "modificationDate": "2020-06-03T16:06:47",
                "date": "2016-07-27T13:46:29",
                "behaviouralProfileId": "860b71cb-df64-41d9-ad57-5f5b5b70984f",
                "behaviouralProfileName": "Dinámico            ",
                "r": 93,
                "e": 71,
                "p": 0,
                "n": 36,
                "s": 0,
                "consistencyIndicator": 0,
                "consistencyText": "Consistente",
                "gender": 1,
                "genderText": "Masculino",
                "consistencyEnum": "Consistent"
            },
            {
                "individualId": "f69cc93e-edc3-4acc-afa3-9f2a869bba1a",
                "baseId": "d92c7492-be33-4adb-b8a1-051248d315dd",
                "subbaseId": "014bd6fd-bb2d-49e8-8e48-63ad4b560920",
                "firstName": "Manolo",
                "lastName": "Lamas",
                "email": "manolito@pda.com",
                "creationDate": "2022-05-09T11:45:05.37",
                "modificationDate": "2022-05-09T11:45:05.37",
                "date": "2022-05-09T11:45:05.37",
                "behaviouralProfileId": null,
                "behaviouralProfileName": null,
                "r": 0,
                "e": 0,
                "p": 0,
                "n": 0,
                "s": 0,
                "consistencyIndicator": -1,
                "consistencyText": "No disponible",
                "gender": 1,
                "genderText": "Masculino",
                "consistencyEnum": "NotAvalaible"
            },
            {
                "individualId": "38974dca-7ff4-4ab3-86c1-51e468b7db1f",
                "baseId": "d92c7492-be33-4adb-b8a1-051248d315dd",
                "subbaseId": "014bd6fd-bb2d-49e8-8e48-63ad4b560920",
                "firstName": "Popeye",
                "lastName": "Pp",
                "email": "uu@mail.com",
                "creationDate": "2022-05-06T16:14:09.727",
                "modificationDate": "2022-05-06T16:14:09.727",
                "date": "2022-05-06T16:14:09.727",
                "behaviouralProfileId": null,
                "behaviouralProfileName": null,
                "r": 0,
                "e": 0,
                "p": 0,
                "n": 0,
                "s": 0,
                "consistencyIndicator": -1,
                "consistencyText": "No disponible",
                "gender": 0,
                "genderText": "Femenino",
                "consistencyEnum": "NotAvalaible"
            },
            {
                "individualId": "0f36eeeb-d481-47c1-9a8f-b2dfd129d98f",
                "baseId": "d92c7492-be33-4adb-b8a1-051248d315dd",
                "subbaseId": "014bd6fd-bb2d-49e8-8e48-63ad4b560920",
                "firstName": "Asdsa",
                "lastName": "Asdsadsad",
                "email": "pp@mail.com",
                "creationDate": "2022-05-05T10:13:39.59",
                "modificationDate": "2022-05-05T10:13:39.59",
                "date": "2022-05-05T10:13:39.59",
                "behaviouralProfileId": null,
                "behaviouralProfileName": null,
                "r": 0,
                "e": 0,
                "p": 0,
                "n": 0,
                "s": 0,
                "consistencyIndicator": -1,
                "consistencyText": "No disponible",
                "gender": 0,
                "genderText": "Femenino",
                "consistencyEnum": "NotAvalaible"
            },
            {
                "individualId": "98e73e8e-fb47-498f-869b-426a80a5f97b",
                "baseId": "d92c7492-be33-4adb-b8a1-051248d315dd",
                "subbaseId": "014bd6fd-bb2d-49e8-8e48-63ad4b560920",
                "firstName": "Dsad",
                "lastName": "Asdsa",
                "email": "a@mail.com",
                "creationDate": "2022-05-05T10:12:53.867",
                "modificationDate": "2022-05-05T10:12:53.867",
                "date": "2022-05-05T10:12:53.867",
                "behaviouralProfileId": null,
                "behaviouralProfileName": null,
                "r": 0,
                "e": 0,
                "p": 0,
                "n": 0,
                "s": 0,
                "consistencyIndicator": -1,
                "consistencyText": "No disponible",
                "gender": 1,
                "genderText": "Masculino",
                "consistencyEnum": "NotAvalaible"
            },
            {
                "individualId": "9bba68ff-6b55-4f35-8a7f-a8ef1fd36740",
                "baseId": "d92c7492-be33-4adb-b8a1-051248d315dd",
                "subbaseId": "014bd6fd-bb2d-49e8-8e48-63ad4b560920",
                "firstName": "Mario",
                "lastName": "Bros",
                "email": "mbros@mail.com",
                "creationDate": "2022-05-05T09:09:03.397",
                "modificationDate": "2022-05-05T09:09:03.397",
                "date": "2022-05-05T09:09:03.397",
                "behaviouralProfileId": null,
                "behaviouralProfileName": null,
                "r": 0,
                "e": 0,
                "p": 0,
                "n": 0,
                "s": 0,
                "consistencyIndicator": -1,
                "consistencyText": "No disponible",
                "gender": 1,
                "genderText": "Masculino",
                "consistencyEnum": "NotAvalaible"
            },
            {
                "individualId": "08b7c085-99b9-45a0-a766-557f00f257b4",
                "baseId": "d92c7492-be33-4adb-b8a1-051248d315dd",
                "subbaseId": "014bd6fd-bb2d-49e8-8e48-63ad4b560920",
                "firstName": "Fernando",
                "lastName": "López Frezza (gmail Hs)",
                "email": "flopezfrezza.hs@gmail.com",
                "creationDate": "2011-06-07T10:08:12.003",
                "modificationDate": "2011-06-07T10:08:12.017",
                "date": "2011-11-09T09:52:57.087",
                "behaviouralProfileId": "83aabaf8-a867-42e4-a9d6-f3f655da589e",
                "behaviouralProfileName": "Exigente            ",
                "r": 48,
                "e": 64,
                "p": 0,
                "n": 88,
                "s": 24,
                "consistencyIndicator": 12,
                "consistencyText": "Inválido",
                "gender": 1,
                "genderText": "Masculino",
                "consistencyEnum": "Invalid"
            }
        ]
    }
}