{
    "subbase": {
        "pageNumber": 1,
        "pageSize": 20,
        "firstPage": "Firt page",
        "lastPage": "Last page",
        "totalPages": 2,
        "totalRecords": 24,
        "nextPage": "Next page",
        "previousPage": null,
        "data": [
            {
                "id": "014bd6fd-bb2d-49e8-8e48-63ad4b560920",
                "baseId": "d92c7492-be33-4adb-b8a1-051248d315dd",
                "name": "adr",
                "countryId": "df760045-cad5-4cd1-8725-da08e9bbd4e2",
                "link": "adr.clienteprueba",
                "default": false,
                "sendReview": true,
                "active": true,
                "creationDate": "2012-04-26T09:14:00.61",
                "modificationDate": "2022-07-08T16:21:07.383",
                "allowsFormParameters": false,
                "deletionDate": null
            },
            {
                "id": "bc5c6fb0-70f9-476f-9c2f-224349a4fd84",
                "baseId": "d92c7492-be33-4adb-b8a1-051248d315dd",
                "name": "BCI Prueba",
                "countryId": "df760045-cad5-4cd1-8725-da08e9bbd4e2",
                "link": "bciprueba.clienteprueba",
                "default": false,
                "sendReview": false,
                "active": true,
                "creationDate": "2012-07-20T16:16:18.597",
                "modificationDate": "2021-03-29T10:57:29.347",
                "allowsFormParameters": false,
                "deletionDate": null
            },
            {
                "id": "13cd5f84-135b-47f4-929e-d538134f2d92",
                "baseId": "d92c7492-be33-4adb-b8a1-051248d315dd",
                "name": "CCSS",
                "countryId": "0f0d1c75-2952-49e3-b1ff-5c85478eaa91",
                "link": "ccss.clienteprueba",
                "default": false,
                "sendReview": true,
                "active": true,
                "creationDate": "2010-10-22T18:25:08.957",
                "modificationDate": "2021-04-06T17:35:55.663",
                "allowsFormParameters": false,
                "deletionDate": null
            },
            {
                "id": "3f5d9dd9-7c30-45d0-88d0-f733d6ce0399",
                "baseId": "d92c7492-be33-4adb-b8a1-051248d315dd",
                "name": "Coach Bender",
                "countryId": "df760045-cad5-4cd1-8725-da08e9bbd4e2",
                "link": "coachbender.clienteprueba",
                "default": false,
                "sendReview": false,
                "active": true,
                "creationDate": "2015-03-17T14:08:02.25",
                "modificationDate": "2015-07-23T14:30:10.2",
                "allowsFormParameters": false,
                "deletionDate": null
            },
            {
                "id": "08a14cbc-5bd9-4baf-a580-a319df1d6e81",
                "baseId": "d92c7492-be33-4adb-b8a1-051248d315dd",
                "name": "Coaching",
                "countryId": "df760045-cad5-4cd1-8725-da08e9bbd4e2",
                "link": "coaching.clienteprueba",
                "default": false,
                "sendReview": false,
                "active": true,
                "creationDate": "2013-12-16T08:21:24.28",
                "modificationDate": "2016-05-05T11:16:15.907",
                "allowsFormParameters": false,
                "deletionDate": null
            },
            {
                "id": "43a39665-2cf3-4a22-8cde-4b7c651c88bb",
                "baseId": "d92c7492-be33-4adb-b8a1-051248d315dd",
                "name": "Dos pruebas",
                "countryId": "df760045-cad5-4cd1-8725-da08e9bbd4e2",
                "link": "dospruebas.clienteprueba",
                "default": false,
                "sendReview": false,
                "active": true,
                "creationDate": "2015-06-29T12:44:04.553",
                "modificationDate": "2021-10-20T15:05:13.557",
                "allowsFormParameters": false,
                "deletionDate": null
            },
            {
                "id": "fcd442d8-3f0a-4061-aa77-9e1ed4d1368b",
                "baseId": "d92c7492-be33-4adb-b8a1-051248d315dd",
                "name": "eolic",
                "countryId": "df760045-cad5-4cd1-8725-da08e9bbd4e2",
                "link": "eolic.clienteprueba",
                "default": false,
                "sendReview": true,
                "active": true,
                "creationDate": "2010-07-23T14:31:43.933",
                "modificationDate": "2020-03-09T11:13:00.257",
                "allowsFormParameters": false,
                "deletionDate": null
            },
            {
                "id": "faff09d3-aa56-4a5b-8fb9-5a30d4460e63",
                "baseId": "d92c7492-be33-4adb-b8a1-051248d315dd",
                "name": "Noorten",
                "countryId": "90ac3e5e-5107-4240-9be9-b779397b7343",
                "link": "noorten.noorten",
                "default": false,
                "sendReview": false,
                "active": true,
                "creationDate": "2015-12-30T10:48:36.717",
                "modificationDate": "2015-12-30T10:48:36.717",
                "allowsFormParameters": false,
                "deletionDate": null
            },
            {
                "id": "2476d5ce-67a8-4683-adc2-10c2f5cc79a1",
                "baseId": "d92c7492-be33-4adb-b8a1-051248d315dd",
                "name": "Otra prueba producción",
                "countryId": "df760045-cad5-4cd1-8725-da08e9bbd4e2",
                "link": "otrapruebaproduccion.clienteprueba",
                "default": false,
                "sendReview": false,
                "active": true,
                "creationDate": "2015-06-30T08:59:43.473",
                "modificationDate": "2015-06-30T08:59:43.473",
                "allowsFormParameters": false,
                "deletionDate": null
            },
            {
                "id": "c6301329-a8b6-46a7-9237-9feba85bb4c7",
                "baseId": "d92c7492-be33-4adb-b8a1-051248d315dd",
                "name": "Partners",
                "countryId": "df760045-cad5-4cd1-8725-da08e9bbd4e2",
                "link": "partners.clienteprueba",
                "default": false,
                "sendReview": true,
                "active": true,
                "creationDate": "2010-10-19T16:10:20.66",
                "modificationDate": "2012-08-21T14:44:03.737",
                "allowsFormParameters": false,
                "deletionDate": null
            },
            {
                "id": "2a1e75f1-534b-4673-ae94-677d2791f184",
                "baseId": "d92c7492-be33-4adb-b8a1-051248d315dd",
                "name": "pr ueb afer",
                "countryId": "f5da1a77-c3fb-4835-88a0-b70e659e81eb",
                "link": "pruebafer.clienteprueba",
                "default": false,
                "sendReview": false,
                "active": true,
                "creationDate": "2011-09-15T09:33:25.503",
                "modificationDate": "2011-09-15T09:33:25.503",
                "allowsFormParameters": false,
                "deletionDate": null
            },
            {
                "id": "75548fa3-786f-4f26-a65d-f57acd87c088",
                "baseId": "d92c7492-be33-4adb-b8a1-051248d315dd",
                "name": "Predeterminada",
                "countryId": "df760045-cad5-4cd1-8725-da08e9bbd4e2",
                "link": "clienteprueba",
                "default": true,
                "sendReview": true,
                "active": true,
                "creationDate": "2010-07-15T13:07:47.997",
                "modificationDate": "2022-06-01T12:37:36.89",
                "allowsFormParameters": true,
                "deletionDate": null
            },
            {
                "id": "385bd936-cd72-43ff-8db9-1823afaf8274",
                "baseId": "d92c7492-be33-4adb-b8a1-051248d315dd",
                "name": "Prueba",
                "countryId": "0f0d1c75-2952-49e3-b1ff-5c85478eaa91",
                "link": "prueba.clienteprueba",
                "default": false,
                "sendReview": true,
                "active": true,
                "creationDate": "2010-10-20T12:34:46.693",
                "modificationDate": "2012-10-09T09:02:10.583",
                "allowsFormParameters": false,
                "deletionDate": null
            },
            {
                "id": "c9b0c335-2d90-4c22-9587-3d89b7ce9c42",
                "baseId": "d92c7492-be33-4adb-b8a1-051248d315dd",
                "name": "Prueba HGJ",
                "countryId": "df760045-cad5-4cd1-8725-da08e9bbd4e2",
                "link": "pruebahgj.clienteprueba",
                "default": false,
                "sendReview": false,
                "active": true,
                "creationDate": "2022-04-20T15:30:27.473",
                "modificationDate": "2022-04-20T16:28:34.463",
                "allowsFormParameters": false,
                "deletionDate": null
            },
            {
                "id": "c929abd8-4d34-4917-b024-7731816947d1",
                "baseId": "d92c7492-be33-4adb-b8a1-051248d315dd",
                "name": "Prueba Producción",
                "countryId": "f5da1a77-c3fb-4835-88a0-b70e659e81eb",
                "link": "pruebaproduccion.clienteprueba",
                "default": false,
                "sendReview": false,
                "active": true,
                "creationDate": "2015-06-30T08:58:19.19",
                "modificationDate": "2022-04-26T15:34:29.017",
                "allowsFormParameters": false,
                "deletionDate": null
            },
            {
                "id": "26747b71-3eae-4152-bd6b-64e2ec11354e",
                "baseId": "d92c7492-be33-4adb-b8a1-051248d315dd",
                "name": "PruebaNahuel",
                "countryId": "df760045-cad5-4cd1-8725-da08e9bbd4e2",
                "link": "pruebanahuel.clienteprueba",
                "default": false,
                "sendReview": false,
                "active": true,
                "creationDate": "2022-05-27T16:17:26.377",
                "modificationDate": "2022-05-27T16:17:26.377",
                "allowsFormParameters": true,
                "deletionDate": null
            },
            {
                "id": "c1494e02-ce1d-47fd-9262-8269cdc7ea90",
                "baseId": "d92c7492-be33-4adb-b8a1-051248d315dd",
                "name": "Región 1",
                "countryId": "df760045-cad5-4cd1-8725-da08e9bbd4e2",
                "link": "region1.clienteprueba",
                "default": false,
                "sendReview": true,
                "active": true,
                "creationDate": "2010-07-15T13:45:08.09",
                "modificationDate": "2012-10-22T08:21:40.503",
                "allowsFormParameters": false,
                "deletionDate": null
            },
            {
                "id": "caae0221-82b5-4a24-82cb-5eac0a8cf6cd",
                "baseId": "d92c7492-be33-4adb-b8a1-051248d315dd",
                "name": "Rusia",
                "countryId": "5a2703e4-2984-4c81-8989-588330842e5d",
                "link": "rusia.clienteprueba",
                "default": false,
                "sendReview": false,
                "active": true,
                "creationDate": "2013-02-18T08:43:47.67",
                "modificationDate": "2013-02-18T08:43:47.67",
                "allowsFormParameters": false,
                "deletionDate": null
            },
            {
                "id": "38409d4e-faa2-4f55-8adf-b460b09513a3",
                "baseId": "d92c7492-be33-4adb-b8a1-051248d315dd",
                "name": "ser (FINALIZADO)",
                "countryId": "f5da1a77-c3fb-4835-88a0-b70e659e81eb",
                "link": "serfinalizado.clienteprueba",
                "default": false,
                "sendReview": false,
                "active": true,
                "creationDate": "2010-12-02T18:01:37.4",
                "modificationDate": "2014-12-10T08:36:10.747",
                "allowsFormParameters": false,
                "deletionDate": null
            },
            {
                "id": "5257dea4-4feb-414d-b05d-88774c84487f",
                "baseId": "d92c7492-be33-4adb-b8a1-051248d315dd",
                "name": "splinters",
                "countryId": "f5da1a77-c3fb-4835-88a0-b70e659e81eb",
                "link": "splinters.clienteprueba",
                "default": false,
                "sendReview": false,
                "active": true,
                "creationDate": "2013-08-09T11:16:02.413",
                "modificationDate": "2021-04-07T16:00:14.43",
                "allowsFormParameters": false,
                "deletionDate": null
            }
        ]
    }
}