{
    "competencies": {
        "pageNumber": 1,
        "pageSize": 20,
        "firstPage": "First page",
        "lastPage": "Last page",
        "totalPages": 3,
        "totalRecords": 48,
        "nextPage": "Next page",
        "previousPage": null,
        "data": [
            {
                "id": "b77d34ef-0bdd-4dae-acc0-f300c2a882d7",
                "baseId": null,
                "subBaseId": null,
                "name": "Sensibilidad Política",
                "description": "Es la capacidad para comprender, interpretar y participar en las relaciones de poder en la Empresa o en otras organizaciones.\nComprende y administra las relaciones con los clientes internos para identificar las personas clave que puedan solucionar problemas en un momento o situación determinada. \nEs hábil para comunicar y hacer comprender internamente las acciones y procedimientos.",
                "r": 50,
                "e": 50,
                "p": 62,
                "n": 0,
                "s": null,
                "competencyCategoryId": "07f08a8c-89dd-45cd-a07c-2b5b35462cd4",
                "order": null,
                "group": null,
                "modificationDate": "2001-01-01T00:00:00",
                "minimalCompatibility": null
            },
            {
                "id": "bd66a946-589c-4da6-be09-ed50becb71db",
                "baseId": null,
                "subBaseId": null,
                "name": "Liderazgo",
                "description": "Es la capacidad de dirigir grupos o equipos de trabajo hacia el logro de objetivos comunes. Implica la habilidad de guiar a los demás.",
                "r": 100,
                "e": 87,
                "p": 62,
                "n": 0,
                "s": null,
                "competencyCategoryId": "07f08a8c-89dd-45cd-a07c-2b5b35462cd4",
                "order": null,
                "group": null,
                "modificationDate": "2001-01-01T00:00:00",
                "minimalCompatibility": null
            },
            {
                "id": "64a5115a-90e4-4af6-bc70-e45f0cb018b6",
                "baseId": null,
                "subBaseId": null,
                "name": "Sensibilidad Interpersonal",
                "description": "Es la capacidad de interpretar y entender los pensamientos, la conducta, los sentimientos y las preocupaciones de las personas (pares, colaboradores o superiores) expresados de manera verbal y no verbal. Implica tener empatía y habilidades de observación.",
                "r": 38,
                "e": 75,
                "p": 50,
                "n": 0,
                "s": null,
                "competencyCategoryId": "07f08a8c-89dd-45cd-a07c-2b5b35462cd4",
                "order": null,
                "group": null,
                "modificationDate": "2001-01-01T00:00:00",
                "minimalCompatibility": null
            },
            {
                "id": "986686f2-2cb3-401a-b591-de7b81002a97",
                "baseId": null,
                "subBaseId": null,
                "name": "Desarrollo de Personas",
                "description": "Implica un esfuerzo genuino por fomentar la formación, involucramiento y desarrollo de los demás, a partir de un apropiado análisis de sus necesidades y tomando en cuenta el contexto organizacional. No se refiere al hecho de enviar a la gente a cursos o programas de formación por rutina, sino a un esfuerzo sistemático por desarrollar a los demás de acuerdo con esas necesidades.",
                "r": 35,
                "e": 50,
                "p": 55,
                "n": 25,
                "s": null,
                "competencyCategoryId": "07f08a8c-89dd-45cd-a07c-2b5b35462cd4",
                "order": null,
                "group": null,
                "modificationDate": "2001-01-01T00:00:00",
                "minimalCompatibility": null
            },
            {
                "id": "2c903ff6-f2e9-4b88-8e8e-d3abc31e00f1",
                "baseId": null,
                "subBaseId": null,
                "name": "Habilidades Operativas",
                "description": "Implica la habilidad de transformar la estrategia en objetivos específicos y planes de acción, asegurándose de que la organización / departamento aplique los procedimientos manejando el riesgo en forma eficaz.\nAsigna claramente responsabilidades y autoridad.",
                "r": 62,
                "e": 0,
                "p": 62,
                "n": 76,
                "s": null,
                "competencyCategoryId": "07f08a8c-89dd-45cd-a07c-2b5b35462cd4",
                "order": null,
                "group": null,
                "modificationDate": "2001-01-01T00:00:00",
                "minimalCompatibility": null
            },
            {
                "id": "a8674bae-68d4-4779-9ba0-cfee2d70924a",
                "baseId": null,
                "subBaseId": null,
                "name": "Orientación al Mercado",
                "description": "Es la capacidad de entender la dinámica del mercado en que se desarrollan los negocios. Implica comprender las fuerzas competitivas del mercado, incluyendo las estrategias de la competencia para alcanzar un posicionamiento competitivo de los negocios y brindarle un valor agregado al cliente.",
                "r": 100,
                "e": 38,
                "p": 87,
                "n": 0,
                "s": null,
                "competencyCategoryId": "07f08a8c-89dd-45cd-a07c-2b5b35462cd4",
                "order": null,
                "group": null,
                "modificationDate": "2001-01-01T00:00:00",
                "minimalCompatibility": null
            },
            {
                "id": "784bb4e5-d1fe-4d57-91cb-ce551cc7130a",
                "baseId": null,
                "subBaseId": null,
                "name": "Vocación por la calidad de Productos y Proyectos",
                "description": "Es actuar para lograr los más altos estándares de calidad en su entorno. Se refleja en la continua evaluación de la información reflexionando sobre cómo se está realizando el trabajo. Implica insistencia para que los roles y las funciones estén impecablemente coordinadas",
                "r": 50,
                "e": 0,
                "p": 50,
                "n": 75,
                "s": null,
                "competencyCategoryId": "07f08a8c-89dd-45cd-a07c-2b5b35462cd4",
                "order": null,
                "group": null,
                "modificationDate": "2001-01-01T00:00:00",
                "minimalCompatibility": null
            },
            {
                "id": "3c4446a2-4887-48b5-bacc-c57744e0ff2b",
                "baseId": null,
                "subBaseId": null,
                "name": "Trabajo en Equipo y Cooperación",
                "description": "Implica trabajar en colaboración con otros, formar parte de un grupo, trabajar juntos y tener un interés genuino por los demás como opuesto a hacerlo en forma individual o competitiva. Es la vocación por participar y hacer participar a los demás en la construcción de la visión compartida.\nQuien posea esta competencia será capaz de construir equipos de alto desempeño y ayudar a otros a través de la confianza, delegación, participación y coaching.",
                "r": 13,
                "e": 38,
                "p": 38,
                "n": 49,
                "s": null,
                "competencyCategoryId": "07f08a8c-89dd-45cd-a07c-2b5b35462cd4",
                "order": null,
                "group": null,
                "modificationDate": "2001-01-01T00:00:00",
                "minimalCompatibility": null
            },
            {
                "id": "83c53a14-c04e-4ba4-abc8-c49fb94576cf",
                "baseId": null,
                "subBaseId": null,
                "name": "Capacidad de Negociación",
                "description": "Es la habilidad para concretar negocios difíciles, desarrollar alianzas y sociedades de negocios a largo plazo, beneficiosas para las partes. Implica identificar los intereses de la otra parte, saber comunicar oportunamente los propios e identificar áreas comunes para llegar a acuerdos ganar-ganar. Se tiene la capacidad de manejar las emociones en favor de la negociación.",
                "r": 75,
                "e": 65,
                "p": 70,
                "n": 0,
                "s": null,
                "competencyCategoryId": "07f08a8c-89dd-45cd-a07c-2b5b35462cd4",
                "order": null,
                "group": null,
                "modificationDate": "2001-01-01T00:00:00",
                "minimalCompatibility": null
            },
            {
                "id": "94998263-cca9-4822-9c63-c357b0f1a4ea",
                "baseId": null,
                "subBaseId": null,
                "name": "Trabajo en Equipo y Cooperación",
                "description": "Implica trabajar en colaboración con otros, formar parte de un grupo, trabajar juntos y tener un interés genuino por los demás como opuesto a hacerlo en forma individual o competitiva. Es la vocación por participar y hacer participar a los demás en la construcción de la visión compartida.\nQuien posea esta competencia será capaz de construir equipos de alto desempeño y ayudar a otros a través de la confianza, delegación, participación y coaching.",
                "r": 13,
                "e": 38,
                "p": 38,
                "n": 49,
                "s": null,
                "competencyCategoryId": "07f08a8c-89dd-45cd-a07c-2b5b35462cd4",
                "order": null,
                "group": null,
                "modificationDate": "2001-01-01T00:00:00",
                "minimalCompatibility": null
            },
            {
                "id": "1844da69-8ee5-4199-99c2-c079b5f70174",
                "baseId": null,
                "subBaseId": null,
                "name": "Autoconfianza",
                "description": "Es el convencimiento/seguridad de que se es capaz de realizar un buen trabajo, cumplir con la misión encomendada y escoger el enfoque adecuado -para el rol y para la organización- a fines de superar problemas. Esto incluye abordar nuevos y crecientes retos con una actitud de confianza en sus propias capacidades, decisiones o puntos de vista.",
                "r": 87,
                "e": 50,
                "p": 80,
                "n": 0,
                "s": null,
                "competencyCategoryId": "07f08a8c-89dd-45cd-a07c-2b5b35462cd4",
                "order": null,
                "group": null,
                "modificationDate": "2001-01-01T00:00:00",
                "minimalCompatibility": null
            },
            {
                "id": "f98d7b54-e12b-42e6-abff-bf5641600db0",
                "baseId": null,
                "subBaseId": null,
                "name": "Innovación",
                "description": "Implica crear algo diferente o de vanguardia. Realizar cosas nuevas que mejoren el desempeño propio y/o de otros.",
                "r": 100,
                "e": 12,
                "p": 62,
                "n": 75,
                "s": null,
                "competencyCategoryId": "07f08a8c-89dd-45cd-a07c-2b5b35462cd4",
                "order": null,
                "group": null,
                "modificationDate": "2001-01-01T00:00:00",
                "minimalCompatibility": null
            },
            {
                "id": "59ce3749-7dd8-4a63-9918-be3fd7786def",
                "baseId": null,
                "subBaseId": null,
                "name": "Desarrollo de Personas",
                "description": "Implica un esfuerzo genuino por fomentar la formación, involucramiento y desarrollo de los demás, a partir de un apropiado análisis de sus necesidades y tomando en cuenta el contexto organizacional. No se refiere al hecho de enviar a la gente a cursos o programas de formación por rutina, sino a un esfuerzo sistemático por desarrollar a los demás de acuerdo con esas necesidades.",
                "r": 35,
                "e": 50,
                "p": 55,
                "n": 25,
                "s": null,
                "competencyCategoryId": "07f08a8c-89dd-45cd-a07c-2b5b35462cd4",
                "order": null,
                "group": null,
                "modificationDate": "2001-01-01T00:00:00",
                "minimalCompatibility": null
            },
            {
                "id": "674c825b-80b7-4003-a264-b87d2eb8a326",
                "baseId": null,
                "subBaseId": null,
                "name": "Vocación por la calidad de Productos y Proyectos",
                "description": "Es actuar para lograr los más altos estándares de calidad en su entorno. Se refleja en la continua evaluación de la información reflexionando sobre cómo se está realizando el trabajo. Implica insistencia para que los roles y las funciones estén impecablemente coordinadas",
                "r": 50,
                "e": 0,
                "p": 50,
                "n": 75,
                "s": null,
                "competencyCategoryId": "07f08a8c-89dd-45cd-a07c-2b5b35462cd4",
                "order": null,
                "group": null,
                "modificationDate": "2001-01-01T00:00:00",
                "minimalCompatibility": null
            },
            {
                "id": "a84e7b5b-804e-4c47-aa28-af218cc62f8b",
                "baseId": null,
                "subBaseId": null,
                "name": "Flexibilidad",
                "description": "Es la capacidad para adaptarse y trabajar eficazmente en variadas situaciones, con personas o grupos diversos. \nQuien posea esta competencia será capaz de comprender y valorar posturas distintas o puntos de vista encontrados, adaptando su propio enfoque a medida que la situación cambiante lo requiera y promoviendo los cambios de la Organización o de las responsabilidades a su cargo.",
                "r": 50,
                "e": 63,
                "p": 35,
                "n": 87,
                "s": null,
                "competencyCategoryId": "07f08a8c-89dd-45cd-a07c-2b5b35462cd4",
                "order": null,
                "group": null,
                "modificationDate": "2001-01-01T00:00:00",
                "minimalCompatibility": null
            },
            {
                "id": "ab55768d-1669-4a7c-b51d-abe1d749856a",
                "baseId": null,
                "subBaseId": null,
                "name": "Orientación al Cliente",
                "description": "Es la capacidad de comprender y administrar las relaciones con los clientes internos, promoviendo y manteniendo una sólida red de clientes y/o asociaciones. Implica asegurar que la organización / departamento cumpla sus compromisos comerciales, mediante la provisión de productos y servicios de alta calidad",
                "r": 62,
                "e": 88,
                "p": 62,
                "n": 0,
                "s": null,
                "competencyCategoryId": "07f08a8c-89dd-45cd-a07c-2b5b35462cd4",
                "order": null,
                "group": null,
                "modificationDate": "2001-01-01T00:00:00",
                "minimalCompatibility": null
            },
            {
                "id": "91f6a02b-9eda-4436-8edb-a99a136c6d32",
                "baseId": null,
                "subBaseId": null,
                "name": "Comunicación",
                "description": "Capacidad para generar y transmitir información asertiva, oportuna y bidireccional, adecuando el lenguaje verbal y no verbal a las distintas audiencias, para lograr los objetivos establecidos.",
                "r": 62,
                "e": 100,
                "p": 62,
                "n": 0,
                "s": null,
                "competencyCategoryId": "07f08a8c-89dd-45cd-a07c-2b5b35462cd4",
                "order": null,
                "group": null,
                "modificationDate": "2001-01-01T00:00:00",
                "minimalCompatibility": null
            },
            {
                "id": "f0cd0de3-461c-4e7d-8a4d-9cbbfdd8a7c3",
                "baseId": null,
                "subBaseId": null,
                "name": "Innovación",
                "description": "Implica crear algo diferente o de vanguardia. Realizar cosas nuevas que mejoren el desempeño propio y/o de otros.",
                "r": 100,
                "e": 12,
                "p": 62,
                "n": 75,
                "s": null,
                "competencyCategoryId": "07f08a8c-89dd-45cd-a07c-2b5b35462cd4",
                "order": null,
                "group": null,
                "modificationDate": "2001-01-01T00:00:00",
                "minimalCompatibility": null
            },
            {
                "id": "2c4be6e1-64e1-4063-ad02-973d2e7178f6",
                "baseId": null,
                "subBaseId": null,
                "name": "Flexibilidad",
                "description": "Es la capacidad para adaptarse y trabajar eficazmente en variadas situaciones, con personas o grupos diversos. \nQuien posea esta competencia será capaz de comprender y valorar posturas distintas o puntos de vista encontrados, adaptando su propio enfoque a medida que la situación cambiante lo requiera y promoviendo los cambios de la Organización o de las responsabilidades a su cargo.",
                "r": 50,
                "e": 63,
                "p": 35,
                "n": 87,
                "s": null,
                "competencyCategoryId": "07f08a8c-89dd-45cd-a07c-2b5b35462cd4",
                "order": null,
                "group": null,
                "modificationDate": "2001-01-01T00:00:00",
                "minimalCompatibility": null
            },
            {
                "id": "0399aa64-7044-4c0c-a2b1-96cb544d76ed",
                "baseId": null,
                "subBaseId": null,
                "name": "Sensibilidad Política",
                "description": "Es la capacidad para comprender, interpretar y participar en las relaciones de poder en la Empresa o en otras organizaciones.\nComprende y administra las relaciones con los clientes internos para identificar las personas clave que puedan solucionar problemas en un momento o situación determinada. \nEs hábil para comunicar y hacer comprender internamente las acciones y procedimientos.",
                "r": 50,
                "e": 50,
                "p": 62,
                "n": 0,
                "s": null,
                "competencyCategoryId": "07f08a8c-89dd-45cd-a07c-2b5b35462cd4",
                "order": null,
                "group": null,
                "modificationDate": "2001-01-01T00:00:00",
                "minimalCompatibility": null
            }
        ]
    }
}